S00001,HUANG,AMANDA,30-NOV-2010,MATH,06,58,Z
S00002,Sherman,Cody,23-May-2009,MATH,07,89,Z
S00003,Gordon,Heidi,09-Nov-2009,MATH,07,87,Z
S00004,GOMEZ,KELLY,29-APR-2010,MATH,06,92,Z
S00005,Cook,Lisa,28-Sep-2011,MATH,05,83,Z
S00006,Daugherty,Joshua,05-Apr-2011,MATH,05,94,Z
S00007,MACIAS,EMMA,21-SEP-2009,MATH,07,79,Z
